{
    "state": "ok",
    "tip": {
        "amount": 2500,
        "amount_display": "25 bits",
        "channel": {
            "icon_url": "https://cdn.changetip.com/img/icon_64_facebook.png?1",
            "info_url": "https://www.changetip.com/tip-online/facebook",
            "mention_prefix": "@",
            "name": "Facebook",
            "website_url": "http://www.facebook.com/"
        },
        "channel_display": "Facebook",
        "collect_url": "https://www.changetip.com/collect/850484",
        "collect_url_short": "http://changetip.com/c/gyWE",
        "context_uid": "dkwandwai3bubbjk",
        "fiat_amount": 2.5e-05,
        "fiat_currency": "BTC",
        "fiat_display": "25.00 bits",
        "fiat_symbol": "B",
        "info_url": "https://www.changetip.com/tip-online/facebook",
        "message": "25 bits",
        "message_display": "25 bits",
        "message_html": "<p>25 bits</p>",
        "meta": {
            "context_url": "/tip-details/850484",
            "response_id": true
        },
        "parent_context_uid": null,
        "receiver": "Aha Hah",
        "receiver_display": "Aha Hah",
        "receiver_profile": {
            "bio": "Well.",
            "currency": "USD",
            "full_name": "nerdfiles",
            "hide_profile_data": false,
            "language": "en",
            "location": "Earth",
            "picture_url": "https://graph.facebook.com/347752808744344/picture?type=large&width=240&height=240",
            "profile_url": "/tipsters/filesofnerds",
            "public_tip_activity": true,
            "user_id": 49978,
            "visibility": "public",
            "website_url": "http://t.co/ThaNrhMemD",
            "work_company": null
        },
        "sender": "LoveStamp IO",
        "sender_display": "LoveStamp IO",
        "sender_profile": {
            "bio": "A LoveStamp to say thanks",
            "currency": "USD",
            "full_name": "LoveStamp",
            "hide_profile_data": false,
            "language": "en",
            "location": "Everywhere",
            "picture_url": "https://graph.facebook.com/100167596991091/picture?type=large&width=240&height=240",
            "profile_url": "/tipsters/LoveStamp",
            "public_tip_activity": true,
            "user_id": 68795,
            "visibility": "private",
            "website_url": "http://www.lovestamp.io/",
            "work_company": ""
        },
        "started_at": "2015-05-29T16:55:44Z",
        "status": "finished",
        "status_display": "Delivered",
        "text_amount": "25 bits",
        "tx_id": 850484,
        "unit": "bits",
        "unit_quantity": 25.0
    }
}
