{
    "response": {
        "statusCode": 202,
        "body": {
            "state": "ok",
            "tip": {
                "fiat_amount": 0.00003118,
                "meta": {
                    "context_url": "/tip-details/826525"
                },
                "parent_context_uid": null,
                "message": "RattelyrDragon you've been LoveStamped by @RattelyrDragon! Bam 31.18 bits.",
                "started_at": "2015-05-02T18:43:51Z",
                "unit": "bits",
                "context_uid": "1fSHAhcNE",
                "amount_display": "31.18 bits",
                "channel_display": "Twitter",
                "collect_url": "https://www.changetip.com/collect/826525",
                "channel": {
                    "icon_url": "https://cdn.changetip.com/img/icon_64_twitter.png",
                    "info_url": "http://tip.me/twitter",
                    "name": "Twitter",
                    "website_url": "http://www.twitter.com/",
                    "mention_prefix": "@"
                },
                "status": "finished",
                "sender_profile": {
                    "hide_profile_data": false,
                    "bio": "A LoveStamp to say thanks",
                    "work_company": "",
                    "user_id": 68795,
                    "language": "en",
                    "website_url": "http://www.lovestamp.io/",
                    "public_tip_activity": true,
                    "picture_url": "https://pbs.twimg.com/profile_images/553614191169249280/bTv9gZUT.jpeg",
                    "visibility": "private",
                    "currency": "USD",
                    "location": "Everywhere",
                    "full_name": "LoveStamp",
                    "profile_url": "/tipsters/LoveStamp"
                },
                "info_url": "http://tip.me/twitter",
                "receiver": "RattelyrDragon",
                "receiver_display": "RattelyrDragon",
                "sender_display": "LoveStampio",
                "unit_quantity": 31.18,
                "message_html": "<p>RattelyrDragon you've been LoveStamped by @RattelyrDragon! Bam 31.18 bits.</p>",
                "sender": "LoveStampio",
                "fiat_display": "31.18 bits",
                "fiat_currency": "BTC",
                "message_display": "RattelyrDragon you've been LoveStamped by @RattelyrDragon! Bam 31.18 bits.",
                "collect_url_short": "http://changetip.com/c/brPE",
                "tx_id": 826525,
                "amount": 3118,
                "fiat_symbol": "B",
                "text_amount": "31.18 bits",
                "receiver_profile": {
                    "hide_profile_data": false,
                    "bio": "Rattelyr dragons are territorial creatures. They like to burrow through loose earth and surprise opponents by bursting out of the soil.",
                    "work_company": null,
                    "user_id": 67821,
                    "language": "en",
                    "website_url": "http://lovestamp.io",
                    "public_tip_activity": true,
                    "picture_url": "https://pbs.twimg.com/profile_images/3042487582/d6436b5945913a0bdd12f10414a7efb0.jpeg",
                    "visibility": "public",
                    "currency": "USD",
                    "location": "Faerûn",
                    "full_name": "RattelyrDragon",
                    "profile_url": "/tipsters/RattelyrDragon"
                },
                "status_display": "Delivered"
            }
        },
        "headers": {
            "age": "0",
            "content-type": "application/json",
            "date": "Sat, 02 May 2015 18:43:52 GMT",
            "etag": "\"20ada2f908daee4cf18e09413d4806a3\"",
            "set-cookie": ["username=LoveStamp; httponly; Path=/; secure"],
            "strict-transport-security": "max-age=31536000; includeSubDomains",
            "vary": "Accept, Cookie",
            "x-content-type-options": "nosniff",
            "x-frame-options": "SAMEORIGIN",
            "x-host": "amoronagu",
            "x-powered-by": "Love and Generosity",
            "x-super-secure": "Yes",
            "x-varnish": "78161555",
            "x-xss-protection": "1; mode=block",
            "transfer-encoding": "chunked",
            "connection": "keep-alive"
        },
        "request": {
            "uri": {
                "protocol": "https:",
                "slashes": true,
                "auth": null,
                "host": "api.changetip.com",
                "port": 443,
                "hostname": "api.changetip.com",
                "hash": null,
                "search": "?api_key=317a15f2552b1800f8d6eebc3eafad5db221ba61",
                "query": "api_key=317a15f2552b1800f8d6eebc3eafad5db221ba61",
                "pathname": "/v1/tips/",
                "path": "/v1/tips/?api_key=317a15f2552b1800f8d6eebc3eafad5db221ba61",
                "href": "https://api.changetip.com/v1/tips/?api_key=317a15f2552b1800f8d6eebc3eafad5db221ba61"
            },
            "method": "POST",
            "headers": {
                "accept": "application/json",
                "content-type": "application/json",
                "content-length": 185
            }
        }
    },
    "body": {
        "state": "ok",
        "tip": {
            "fiat_amount": 0.00003118,
            "meta": {
                "context_url": "/tip-details/826525"
            },
            "parent_context_uid": null,
            "message": "RattelyrDragon you've been LoveStamped by @RattelyrDragon! Bam 31.18 bits.",
            "started_at": "2015-05-02T18:43:51Z",
            "unit": "bits",
            "context_uid": "1fSHAhcNE",
            "amount_display": "31.18 bits",
            "channel_display": "Twitter",
            "collect_url": "https://www.changetip.com/collect/826525",
            "channel": {
                "icon_url": "https://cdn.changetip.com/img/icon_64_twitter.png",
                "info_url": "http://tip.me/twitter",
                "name": "Twitter",
                "website_url": "http://www.twitter.com/",
                "mention_prefix": "@"
            },
            "status": "finished",
            "sender_profile": {
                "hide_profile_data": false,
                "bio": "A LoveStamp to say thanks",
                "work_company": "",
                "user_id": 68795,
                "language": "en",
                "website_url": "http://www.lovestamp.io/",
                "public_tip_activity": true,
                "picture_url": "https://pbs.twimg.com/profile_images/553614191169249280/bTv9gZUT.jpeg",
                "visibility": "private",
                "currency": "USD",
                "location": "Everywhere",
                "full_name": "LoveStamp",
                "profile_url": "/tipsters/LoveStamp"
            },
            "info_url": "http://tip.me/twitter",
            "receiver": "RattelyrDragon",
            "receiver_display": "RattelyrDragon",
            "sender_display": "LoveStampio",
            "unit_quantity": 31.18,
            "message_html": "<p>RattelyrDragon you've been LoveStamped by @RattelyrDragon! Bam 31.18 bits.</p>",
            "sender": "LoveStampio",
            "fiat_display": "31.18 bits",
            "fiat_currency": "BTC",
            "message_display": "RattelyrDragon you've been LoveStamped by @RattelyrDragon! Bam 31.18 bits.",
            "collect_url_short": "http://changetip.com/c/brPE",
            "tx_id": 826525,
            "amount": 3118,
            "fiat_symbol": "B",
            "text_amount": "31.18 bits",
            "receiver_profile": {
                "hide_profile_data": false,
                "bio": "Rattelyr dragons are territorial creatures. They like to burrow through loose earth and surprise opponents by bursting out of the soil.",
                "work_company": null,
                "user_id": 67821,
                "language": "en",
                "website_url": "http://lovestamp.io",
                "public_tip_activity": true,
                "picture_url": "https://pbs.twimg.com/profile_images/3042487582/d6436b5945913a0bdd12f10414a7efb0.jpeg",
                "visibility": "public",
                "currency": "USD",
                "location": "Faerûn",
                "full_name": "RattelyrDragon",
                "profile_url": "/tipsters/RattelyrDragon"
            },
            "status_display": "Delivered"
        }
    },
    "messageConstruct": {
        "status": "@RattelyrDragon you've been LoveStamped by @RattelyrDragon! 31.18 bits."
    }
}


